Big Data in R with Arrow - Data Manipulation Part 1 - Exercises
…
Problem
Solution 1
Solution 2 and 3

Use the dplyr::filter() and stringr::str_ends() to return a subset of the data which is a) from September 2020, and b) the value in vendor_name ends with the letter “S”.

Try to use the stringr function str_replace_na() to replace any NA values in the vendor_name column with the string “No vendor” instead. What happens, and why?

Bonus question: see if you can find a different way of completing the task in question 2.

nyc_taxi %>%
  filter(str_ends(vendor_name, "S"), year == 2020,  month == 9) %>%
  collect()

# A tibble: 847,149 × 24
   vendor_name pickup_datetime     dropoff_datetime    passenger_count
   <chr>       <dttm>              <dttm>                        <int>
 1 VTS         2020-09-03 01:27:09 2020-09-03 01:36:37               1
 2 VTS         2020-09-03 01:50:56 2020-09-03 02:09:16               1
 3 VTS         2020-09-03 01:00:21 2020-09-03 01:04:18               2
 4 VTS         2020-09-03 01:48:16 2020-09-03 02:06:04               2
 5 VTS         2020-09-03 01:37:23 2020-09-03 01:48:16               1
 6 VTS         2020-09-03 01:05:52 2020-09-03 01:13:17               1
 7 VTS         2020-09-03 01:26:54 2020-09-03 01:31:10               1
 8 VTS         2020-09-03 01:08:05 2020-09-03 01:12:33               1
 9 VTS         2020-09-03 01:24:36 2020-09-03 01:37:46               1
10 VTS         2020-09-03 01:49:32 2020-09-03 01:55:51               1
# ℹ 847,139 more rows
# ℹ 20 more variables: trip_distance <dbl>, pickup_longitude <dbl>,
#   pickup_latitude <dbl>, rate_code <chr>, store_and_fwd <chr>,
#   dropoff_longitude <dbl>, dropoff_latitude <dbl>, payment_type <chr>,
#   fare_amount <dbl>, extra <dbl>, mta_tax <dbl>, tip_amount <dbl>,
#   tolls_amount <dbl>, total_amount <dbl>, improvement_surcharge <dbl>,
#   congestion_surcharge <dbl>, pickup_location_id <int>, …
…
This won’t work as stringr::str_replace_na() hasn’t been implemented in Arrow. You could try using mutate() and ifelse() here instead.

nyc_taxi %>%
  mutate(vendor_name = ifelse(is.na(vendor_name), "No vendor", vendor_name)) %>%
  collect()

Or, if you only needed a subset of the data, you could apply the function after collecting it into R memory.

nyc_taxi %>%
  filter(year == 2019, month == 10) %>% # smaller subset of the data
  collect() %>%
  mutate(vendor_name = stringr::str_replace_na(vendor_name, "No vendor"))

# A tibble: 7,213,588 × 24
   vendor_name pickup_datetime     dropoff_datetime    passenger_count
   <chr>       <dttm>              <dttm>                        <int>
 1 VTS         2019-10-01 05:25:25 2019-10-01 05:42:23               2
 2 VTS         2019-10-01 05:19:14 2019-10-01 05:39:20               1
 3 VTS         2019-10-01 05:42:19 2019-10-01 05:49:06               2
 4 VTS         2019-10-01 05:46:56 2019-10-01 05:58:38               5
 5 CMT         2019-10-01 05:05:24 2019-10-01 05:15:05               1
 6 CMT         2019-10-01 05:39:12 2019-10-01 05:55:03               3
 7 CMT         2019-10-01 05:58:11 2019-10-01 06:02:56               2
 8 CMT         2019-10-01 05:07:30 2019-10-01 05:18:38               1
 9 CMT         2019-10-01 05:23:52 2019-10-01 05:25:52               3
10 CMT         2019-10-01 05:42:31 2019-10-01 05:56:08               1
# ℹ 7,213,578 more rows
# ℹ 20 more variables: trip_distance <dbl>, pickup_longitude <dbl>,
#   pickup_latitude <dbl>, rate_code <chr>, store_and_fwd <chr>,
#   dropoff_longitude <dbl>, dropoff_latitude <dbl>, payment_type <chr>,
#   fare_amount <dbl>, extra <dbl>, mta_tax <dbl>, tip_amount <dbl>,
#   tolls_amount <dbl>, total_amount <dbl>, improvement_surcharge <dbl>,
#   congestion_surcharge <dbl>, pickup_location_id <int>, …
