Big Data in R with Arrow – data_manipulation_2
…
Traps for the unwary

Question: which are the most common borough-to-borough journeys in the dataset?

nyc_taxi_zones <-
  read_csv_arrow(here::here("data/taxi_zone_lookup.csv")) |>
  select(location_id = LocationID,
         borough = Borough)

nyc_taxi_zones

# A tibble: 265 × 2
   location_id borough      
         <int> <chr>        
 1           1 EWR          
 2           2 Queens       
 3           3 Bronx        
 4           4 Manhattan    
 5           5 Staten Island
 6           6 Staten Island
 7           7 Queens       
 8           8 Queens       
 9           9 Queens       
10          10 Queens       
# ℹ 255 more rows
…
103.234 sec elapsed

2-3 minutes to join twice and cross-tabulate on non-partition variables, with 1.15 billion rows of data 🙂

The results

borough_counts

# A tibble: 50 × 3
   pickup_borough dropoff_borough         n
   <chr>          <chr>               <int>
 1 <NA>           <NA>            732357953
 2 Manhattan      Manhattan       351198872
 3 Queens         Manhattan        14440705
 4 Manhattan      Queens           13052517
 5 Manhattan      Brooklyn         11180867
 6 Queens         Queens            7440356
 7 Unknown        Unknown           4491811
 8 Queens         Brooklyn          3662324
 9 Brooklyn       Brooklyn          3550480
10 Manhattan      Bronx             2071830
# ℹ 40 more rows
…
